<?xml version="1.0" encoding="utf-8"?>
<!-- Generator: Adobe Illustrator 21.0.0, SVG Export Plug-In . SVG Version: 6.00 Build 0)  -->
<svg version="1.1" id="Layer_1" xmlns="http://www.w3.org/2000/svg" xmlns:xlink="http://www.w3.org/1999/xlink" x="0px" y="0px"
	 viewBox="0 0 28 28" style="enable-background:new 0 0 28 28;" xml:space="preserve">
<path class="st0" d="M27.1,22.5c1.2,1.2,1.2,3.3,0,4.5c-0.6,0.6-1.4,0.9-2.3,0.9c-0.8,0-1.6-0.3-2.3-0.9L14,18.5l-8.5,8.5
	C4.8,27.7,4,28,3.2,28c-0.8,0-1.6-0.3-2.3-0.9c-1.2-1.2-1.2-3.3,0-4.5L9.5,14L0.9,5.5c-1.2-1.2-1.2-3.3,0-4.5c1.2-1.2,3.3-1.2,4.5,0
	L14,9.5l8.5-8.5c1.2-1.2,3.3-1.2,4.5,0c1.2,1.2,1.2,3.3,0,4.5L18.5,14L27.1,22.5z"/>
</svg>
