<?xml version="1.0" encoding="utf-8"?>
<!-- Generator: Adobe Illustrator 21.0.0, SVG Export Plug-In . SVG Version: 6.00 Build 0)  -->
<svg version="1.1" id="Layer_1" xmlns="http://www.w3.org/2000/svg" xmlns:xlink="http://www.w3.org/1999/xlink" x="0px" y="0px"
	 viewBox="0 0 13 24" style="enable-background:new 0 0 13 24;" xml:space="preserve">
<path class="st0" d="M11.9,24c0.3,0,0.6-0.1,0.8-0.3c0.4-0.4,0.4-1.1,0-1.6L2.7,12l10-10.1c0.4-0.4,0.4-1.1,0-1.6
	c-0.4-0.4-1.1-0.4-1.6,0L0.3,11.2c-0.4,0.4-0.4,1.1,0,1.6l10.8,10.9C11.3,23.9,11.6,24,11.9,24z"/>
</svg>
