<?xml version="1.0" encoding="UTF-8"?>
<svg width="1920px" height="84px" viewBox="0 0 1920 84" version="1.1" xmlns="http://www.w3.org/2000/svg" xmlns:xlink="http://www.w3.org/1999/xlink">
    <!-- Generator: Sketch 43 (38999) - http://www.bohemiancoding.com/sketch -->
    <title>wave 03</title>
    <desc>Created with Sketch.</desc>
    <defs></defs>
    <g id="Page-1" stroke="none" stroke-width="1" fill="none" fill-rule="evenodd">
        <g id="Main-01" transform="translate(0.000000, -3903.000000)" fill="#F6FFF3">
            <g id="questions" transform="translate(0.000000, 3903.000000)">
                <path d="M0,50 C0,50 97.8571429,9.153997e-13 235,9.09007244e-13 C372.142857,9.06450262e-13 337.857143,50 475,50 C612.142857,50 577.857143,6.39245601e-15 715,0 C852.142857,0 822.857143,50 960,50 C1097.14286,50 1067.85714,6.39245601e-15 1205,0 C1342.14286,0 1307.85714,50 1445,50 C1488.38165,50 1552.74805,5.24181393e-14 1685,0 C1817.25195,-5.75321041e-14 1920,50 1920,50 L1920,83.6273 L0,83.6273 L0,50 Z" id="wave-03"></path>
            </g>
        </g>
    </g>
</svg>