<?xml version="1.0" encoding="UTF-8"?>
<svg width="1920px" height="111px" viewBox="0 0 1920 111" version="1.1" xmlns="http://www.w3.org/2000/svg" xmlns:xlink="http://www.w3.org/1999/xlink">
    <!-- Generator: Sketch 43 (38999) - http://www.bohemiancoding.com/sketch -->
    <title>wave 05</title>
    <desc>Created with Sketch.</desc>
    <defs></defs>
    <g id="Page-1" stroke="none" stroke-width="1" fill="none" fill-rule="evenodd">
        <g id="Main-01" transform="translate(0.000000, -1965.000000)" fill="#F6FFF3">
            <g id="different" transform="translate(0.000000, 1340.000000)">
                <path d="M0,625 L1920,625 L1920,736 C1920,736 1822.14286,686 1685,686 C1547.85714,686 1582.14286,736 1445,736 C1307.85714,736 1342.14286,686 1205,686 C1067.85714,686 1097.14286,736 960,736 C822.857143,736 852.142857,686 715,686 C577.857143,686 612.142857,736 475,736 C420.344673,736 318.000464,686 235,686 C151.999536,686 0,736 0,736 L0,625 Z" id="wave-05"></path>
            </g>
        </g>
    </g>
</svg>