<?xml version="1.0" encoding="UTF-8"?>
<svg width="62px" height="57px" viewBox="0 0 62 57" version="1.1" xmlns="http://www.w3.org/2000/svg" xmlns:xlink="http://www.w3.org/1999/xlink">
    <!-- Generator: Sketch 43 (38999) - http://www.bohemiancoding.com/sketch -->
    <title>mail</title>
    <desc>Created with Sketch.</desc>
    <defs></defs>
    <g id="Page-1" stroke="none" stroke-width="1" fill="none" fill-rule="evenodd" opacity="0.900000036">
        <g id="Main-01" transform="translate(-1219.000000, -1050.000000)" fill-rule="nonzero" fill="#28B32C">
            <g id="how-it-works" transform="translate(610.000000, 928.000000)">
                <g id="cheme" transform="translate(0.000000, 119.000000)">
                    <g id="icons" transform="translate(38.000000, 0.000000)">
                        <path d="M632.540381,26.6113386 L632.540518,26.6112029 L624.62362,21.408348 L624.62362,4.01790561 C624.62362,3.45575027 624.163864,3 623.596767,3 L580.401864,3 C579.834767,3 579.375011,3.45575027 579.375011,4.01790561 L579.375011,21.4095695 L571.459482,26.6112029 L571.459619,26.6114744 C571.18278,26.7937473 571,27.1053622 571,27.4595933 L571,58.9820944 C571,59.5442497 571.459756,60 572.026853,60 L631.973147,60 C632.540244,60 633,59.5442497 633,58.9820944 L633,27.4595933 C633,27.1053622 632.81722,26.7937473 632.540381,26.6113386 L632.540381,26.6113386 Z M579.375011,30.1711582 L576.154116,28.4774989 L579.375011,28.4774989 L579.375011,30.1711582 Z M573.053706,29.1517596 L596.667896,41.5688509 L573.053706,57.0853969 L573.053706,29.1517596 L573.053706,29.1517596 Z M601.999589,40.5076504 L628.565913,57.9641888 L575.433403,57.9641888 L601.999589,40.5076504 L601.999589,40.5076504 Z M607.331693,41.5689866 L630.946158,29.1517596 L630.946158,57.0859398 L607.331693,41.5689866 L607.331693,41.5689866 Z M624.62362,28.4774989 L627.846021,28.4774989 L624.62362,30.1718368 L624.62362,28.4774989 Z M628.565913,26.4416877 L624.62362,26.4416877 L624.62362,23.8507786 L628.565913,26.4416877 Z M622.569914,5.03581123 L622.569914,31.2517668 L605.383548,40.2888685 L602.566823,38.4380447 C602.223032,38.2120696 601.776009,38.2120696 601.432219,38.4380447 L598.615904,40.2885971 L581.428717,31.2510881 L581.428717,5.03581123 L622.569914,5.03581123 L622.569914,5.03581123 Z M579.375011,26.4416877 L575.434361,26.4416877 L579.375011,23.8521358 L579.375011,26.4416877 Z M601,29 L608.996342,29 C609.550629,29 610,28.5579058 610,28.0125949 C610,27.467284 609.550629,27.0251898 608.996342,27.0251898 L601,27.0251898 C597.144214,27.0251898 594.007316,23.9390881 594.007316,20.145741 L594.007316,19.8543907 C594.007316,16.0610436 597.144214,12.9749419 601,12.9749419 C604.855786,12.9749419 607.992684,16.0610436 607.992684,19.8543907 L607.992684,20.5828323 C607.992684,21.4039584 607.313677,22.0721025 606.478901,22.0721025 C605.644125,22.0721025 604.965117,21.4040901 604.965117,20.5828323 L604.965117,19.1988853 C604.965117,16.847018 603.020296,14.9335586 600.629717,14.9335586 C598.239138,14.9335586 596.294317,16.8468864 596.294317,19.1988853 C596.294317,21.5507526 598.239138,23.4640804 600.629717,23.4640804 C601.722901,23.4640804 602.722143,23.0631939 603.485458,22.4040023 C604.106923,23.3891693 605.216032,24.0467811 606.478901,24.0467811 C608.420376,24.0467811 610,22.4928687 610,20.5827007 L610,19.854259 C610,14.9720016 605.962619,11 601,11 C596.037381,11 592,14.9720016 592,19.854259 L592,20.1456093 C592,25.0279984 596.037381,29 601,29 L601,29 Z M600.629717,21.4892702 C599.345972,21.4892702 598.301633,20.4618423 598.301633,19.1988853 C598.301633,17.9359284 599.346106,16.9083688 600.629717,16.9083688 C601.913329,16.9083688 602.957802,17.9359284 602.957802,19.1988853 C602.957802,20.4618423 601.913462,21.4892702 600.629717,21.4892702 Z" id="mail"></path>
                    </g>
                </g>
            </g>
        </g>
    </g>
</svg>